%YAML 1.1
%TAG !u! tag:unity3d.com,2011:
--- !u!114 &11400000
MonoBehaviour:
  m_ObjectHideFlags: 0
  m_CorrespondingSourceObject: {fileID: 0}
  m_PrefabInstance: {fileID: 0}
  m_PrefabAsset: {fileID: 0}
  m_GameObject: {fileID: 0}
  m_Enabled: 1
  m_EditorHideFlags: 0
  m_Script: {fileID: 11500000, guid: 8508d84cb9e774e43bdb8b5537011b3c, type: 3}
  m_Name: Skill_06
  m_EditorClassIdentifier: 
  skillName: Coordinated Attack
  skillID: 5
  expPerSkillPoint: 1.5
  expCost: 10000
  costIncrease: 0
  expSum: 0
  skillPointsInvested: 0
  oneTimeUse: 1
  knowledgeBoost: 0
  silverBoost: 0
  coordination: 0
